dplyr I
…
```r
temp <- temp %>% select(roll_num, sale_year, price, neigh_label)
```

--

Confirm the result:

```r
temp
```

```
# A tibble: 23 x 4
   roll_num       sale_year   price neigh_label
   <chr>              <dbl>   <dbl> <chr>      
 1 2629073090001       2017 7133000 Kitsilano  
 2 2629073090001       2017 7133000 Kitsilano  
 3 26126595950150      2017 9050000 Downtown   
 4 26590124460135      2017 5250000 Downtown   
 5 26590124460135      2017 5250000 Downtown   
 6 26592118060107      2017 5900000 Downtown   
 7 26600118510188      2017 6500000 Downtown   
 8 26600118740015      2017 5300000 Downtown   
 9 26600118740027      2017 5280000 Downtown   
10 27113601070014      2017 5600000 West End   
# ... with 13 more rows
```

---

Sorted in the descending order of price.

--

```r
temp %>% arrange(desc(price))
```

```
# A tibble: 23 x 4
   roll_num       sale_year    price neigh_label      
   <chr>              <dbl>    <dbl> <chr>            
 1 28589118930012      2017 10180000 Harbour          
 2 26126595950150      2017  9050000 Downtown         
 3 28589118590050      2017  8700000 Harbour          
 4 28589118590004      2017  7600000 Harbour          
 5 2629073090001       2017  7133000 Kitsilano        
 6 2629073090001       2017  7133000 Kitsilano        
 7 30618138720051      2017  6850000 False Creek North
 8 26600118510188      2017  6500000 Downtown         
 9 28589118050027      2017  6500000 Harbour          
10 30614161040083      2017  6500000 False Creek North
# ... with 13 more rows
```
…
