dplyr 3
…
```r
pob_n <- pob %>% 
  count(POBF, POBM, wt=WEIGHT, sort=TRUE)
```

---

.scroll-output[

```r
pob_n %>% top_n(20)
```

```
# A tibble: 37 x 3
# Groups:   POBF [7]
   POBF                        POBM                                n
   <ord>                       <ord>                           <dbl>
 1 Canada                      Canada                      20179628.
 2 Europe                      Europe                       3196033.
 3 Southeast and Southern Asia Southeast and Southern Asia  2623490.
 4 Other countries and regions Other countries and regions  1550318.
 5 Eastern Asia                Eastern Asia                 1455466.
 6 Not available               Not available                1380762.
 7 Americas                    Americas                     1300543.
 8 Europe                      Canada                        964897.
 9 Canada                      Europe                        664389.
10 Americas                    Canada                        343846.
# ... with 27 more rows
```
…
---

Remove the observations where POBF and POBM are equal. Show the top 20 rows.

--

.scroll-output[

```r
pob_n %>% filter(POBF != POBM) %>% top_n(20)
```

```
# A tibble: 30 x 3
# Groups:   POBF [6]
   POBF                        POBM                              n
   <ord>                       <ord>                         <dbl>
 1 Europe                      Canada                      964897.
 2 Canada                      Europe                      664389.
 3 Americas                    Canada                      343846.
 4 Canada                      Americas                    275513.
 5 Other countries and regions Canada                      100222.
 6 Canada                      Southeast and Southern Asia  58701.
 7 Canada                      Other countries and regions  49481.
 8 Europe                      Americas                     41222.
 9 Southeast and Southern Asia Canada                       40961.
10 Canada                      Eastern Asia                 36630.
# ... with 20 more rows
```
…
